…
```r
df %>% group_by(date) %>% 
  summarize(totalSteps = sum(steps, na.rm = T)) %>% 
  arrange(date) %>% 
  ungroup()
```

```
## `summarise()` ungrouping output (override with `.groups` argument)
```

```
## # A tibble: 61 x 2
##    date       totalSteps
##    <chr>           <int>
##  1 2012-10-01          0
##  2 2012-10-02        126
##  3 2012-10-03      11352
##  4 2012-10-04      12116
##  5 2012-10-05      13294
##  6 2012-10-06      15420
##  7 2012-10-07      11015
##  8 2012-10-08          0
##  9 2012-10-09      12811
## 10 2012-10-10       9900
## # ... with 51 more rows
```
…
